<?xml version="1.0" standalone="no"?>
<!DOCTYPE svg PUBLIC "-//W3C//DTD SVG 1.1//EN" "http://www.w3.org/Graphics/SVG/1.1/DTD/svg11.dtd" >
<svg xmlns="http://www.w3.org/2000/svg">
<metadata>Generated by IcoMoon</metadata>
<defs>
<font id="icons" horiz-adv-x="512">
<font-face units-per-em="512" ascent="480" descent="-32" />
<missing-glyph horiz-adv-x="512" />
<glyph unicode="&#x20;" d="" horiz-adv-x="256" />
<glyph unicode="&#xe600;" d="M409.6 409.6h-307.2c-28.16 0-51.2-23.040-51.2-51.2v-179.2c0-28.16 23.040-51.2 51.2-51.2h102.4l102.4-76.8v76.8h102.4c28.16 0 51.2 23.040 51.2 51.2v179.2c0 28.16-23.040 51.2-51.2 51.2z" />
<glyph unicode="&#xe601;" d="M493.849 476.007c-2.765 8.064-11.495 12.313-19.481 9.523s-12.185-11.623-9.395-19.712c23.552-68.352-23.194-119.399-58.803-146.714l-14.413 20.839c-4.813 6.963-15.667 12.774-24.064 12.903l-80.768-0.384c-8.397 0.128-20.889-3.763-27.801-8.627l-237.977-168.653c-11.52-8.166-14.361-24.243-6.272-35.917l108.186-156.339c8.064-11.674 21.043-10.266 32.563-2.125l237.978 168.679c6.912 4.864 14.771 15.462 17.562 23.501l25.293 80.538c2.739 8.038 1.075 20.327-3.738 27.289l-8.806 12.697c47.846 36.992 97.51 102.451 69.939 182.502zM383.13 236.493c-18.457-13.082-43.879-8.525-56.807 10.137-12.902 18.663-8.423 44.39 10.035 57.472 14.643 10.394 33.664 9.625 47.36-0.461-6.912-4.198-11.623-6.605-12.519-7.040-7.629-3.635-10.906-12.851-7.296-20.582 2.611-5.607 8.089-8.909 13.849-8.909 2.176 0 4.403 0.486 6.502 1.485 4.889 2.329 10.189 5.171 15.693 8.473 2.457-15.181-3.533-31.155-16.819-40.576z" />
<glyph unicode="&#xe602;" d="M256 465.92c-130.073 0-235.52-105.472-235.52-235.52 0-130.073 105.447-235.52 235.52-235.52s235.52 105.447 235.52 235.52c0 130.074-105.447 235.52-235.52 235.52zM256 46.080c-101.811 0-184.32 82.534-184.32 184.32s82.509 184.32 184.32 184.32 184.32-82.534 184.32-184.32-82.509-184.32-184.32-184.32zM273.92 363.52h-35.84v-140.544l87.168-87.168 25.344 25.344-76.672 76.672z" />
</font></defs></svg>